<?xml version="1.0" standalone="no"?>
<!DOCTYPE svg PUBLIC "-//W3C//DTD SVG 1.1//EN" "http://www.w3.org/Graphics/SVG/1.1/DTD/svg11.dtd">
<svg xmlns="http://www.w3.org/2000/svg">
<metadata>Generated by Fontastic.me</metadata>
<defs>
<font id="mineros-font" horiz-adv-x="512">
<font-face font-family="mineros-font" units-per-em="512" ascent="480" descent="-32"/>
<missing-glyph horiz-adv-x="512" />

<glyph glyph-name="at" unicode="&#97;" d="M314 291c0 20-5 36-15 48-10 11-24 17-42 17-12 0-24-3-36-8-11-6-22-14-31-25-9-10-17-23-23-39-6-16-8-33-8-51 0-21 5-38 15-50 10-11 24-17 43-17 18 0 35 6 50 19 15 13 27 28 35 47 8 19 12 39 12 59z m161-35c0-21-3-40-10-56-7-17-17-30-28-39-12-9-25-16-38-21-13-5-27-8-41-8-1 0-3 0-5-1-2-1-3-2-4-2-19 0-32 5-41 15-5 7-8 14-9 24-10-13-23-23-38-31-15-9-32-13-50-13-30 0-54 9-71 27-17 18-25 44-25 77 0 30 6 58 19 83 12 25 29 46 51 60 21 15 45 22 70 22 17 0 31-3 44-10 13-6 23-16 31-28l0 5 3 16c1 1 1 3 2 4 1 1 2 1 3 1l33 0c1 0 3-1 4-3 1-1 1-2 1-4l-34-176c-1-4-2-9-2-13 0-8 1-13 4-15 2-3 6-4 13-4 5 0 10 1 16 2 5 0 12 3 21 6 8 4 15 9 22 15 6 6 11 14 16 25 5 12 7 25 7 39 0 56-17 100-50 134-33 33-77 49-133 49-25 0-48-5-71-14-23-10-42-23-58-39-17-17-30-36-39-59-10-22-15-46-15-71 0-24 5-48 15-71 9-22 22-42 39-58 16-16 35-29 58-39 23-10 46-14 71-14 43 0 82 13 116 41 2 1 4 2 7 2 2 0 4-1 6-3l11-14c2-3 2-5 2-7 0-3-1-5-3-7-20-15-41-28-65-36-24-9-49-13-74-13-30 0-58 6-85 17-27 12-51 28-70 47-20 20-35 43-47 70-12 27-17 56-17 85 0 30 5 59 17 86 12 27 27 50 47 70 19 19 43 35 70 46 27 12 55 18 85 18 66 0 118-20 159-61 40-40 60-93 60-159z"/>
<glyph glyph-name="at-sign" unicode="&#98;" d="M448 256c0 106-86 192-192 192-106 0-192-86-192-192 0-106 86-192 192-192 34 0 66 9 94 25 3 1 5 4 5 7 0 3-2 6-4 7l0 0-34 21 0 0c-1 1-3 2-5 2-1 0-2 0-3-1l0 0c-17-6-34-10-53-10-78 0-141 63-141 141 0 78 63 141 141 141 73 0 134-56 140-128 0-51-22-80-39-80-10 0-17 7-17 21 0 2 1 8 1 11l22 101-1 0c0 1 1 1 1 2 0 3-3 6-7 6l-37 0c-4 0-6-2-7-5l0 0-4-18c-9 17-28 30-56 30-52 0-102-50-102-111 0-43 26-75 70-75 24 0 49 14 65 36l0-3c4-17 51-39 78-39 39 0 85 27 85 102l0 0c0 3 0 6 0 9z m-158-35c-10-14-26-30-50-30-23 0-37 16-37 40 0 33 26 65 62 65 20 0 32-13 36-23z"/>
</font></defs></svg>
